#Command:  
^E:\PROJECTS\STREAMING\FRONTEND\BUILD\RELEASE\OBJ\NBIND\BINDING.OBJ|E:\PROJECTS\STREAMING\FRONTEND\BUILD\RELEASE\OBJ\NBIND\BUFFER.OBJ|E:\PROJECTS\STREAMING\FRONTEND\BUILD\RELEASE\OBJ\NBIND\COMMON.OBJ|E:\PROJECTS\STREAMING\FRONTEND\BUILD\RELEASE\OBJ\NBIND\REFLECT.OBJ|E:\PROJECTS\STREAMING\FRONTEND\BUILD\RELEASE\OBJ\NBIND\STREAMING.OBJ|E:\PROJECTS\STREAMING\FRONTEND\BUILD\RELEASE\OBJ\NBIND\WIN_DELAY_LOAD_HOOK.OBJ
C:\USERS\MRPAP\APPDATA\LOCAL\MICROSOFT\APPLICATIONINSIGHTS\VSTELAIF-312CBD79-9DBB-4C48-A7DA-3CC2A931CB70\1EB32C03E0BC4332B99CCAB15DB3C4FA.TMP
